{
    "version": "1.2.0",
    "cms_version_min": "3.51.6",
    "title": "Web forms CRM integration",
    "title_ru": "Веб формы CRM интеграция",
    "description": "CRM integration for web forms",
    "description_ru": "CRM интеграция для веб форм",
    "author": "<a href='http://www.cetera.ru'>Cetera Labs</a>",
    "requires": [
        {
            "plugin": "forms",
            "version": "6.7.3"
        }
    ]
}
